Taylor Arnold - STAT 209
…
            Taylor Arnold

            Assistant Professor of Statistics, University of Richmond

  Numeric Summaries

    Variable Types

These notes use a set of data describing the commuting patterns in
906 metropolitan areas within the United States.

commute <- read_csv("https://raw.githubusercontent.com/statsmaths/stat_data/gh-pages/acs_commute.csv")

## # A tibble: 906 x 12
##                           name      lat        lon prop_housing
##                          <chr>    <dbl>      <dbl>        <dbl>
##  1                Aberdeen, SD 45.52158  -98.69595     16.16231
##  2                Aberdeen, WA 47.14445 -123.82847     21.54960
##  3                 Abilene, TX 32.44969  -99.71768     19.82418
##  4                     Ada, OK 34.72800  -96.68444     18.07076
##  5                  Adrian, MI 41.89508  -84.06637     21.17295
##  6                   Akron, OH 41.14873  -81.34953     20.58453
##  7              Alamogordo, NM 32.61316 -105.74168     19.70749
##  8                  Albany, GA 31.58951  -84.17389     24.45320
##  9                  Albany, OR 44.48868 -122.53432     23.96531
## 10 Albany-Schenectady-Troy, NY 42.78851  -73.94198     20.53007
## # ... with 896 more rows, and 8 more variables: median_income <dbl>,
## #   avg_duration <dbl>, median_age <dbl>, same_house <dbl>,
## #   same_county <dbl>, car_alone <dbl>, public_transit <dbl>,
## #   time_0900_0959 <dbl>
…
