…
{% highlight r %}
gapminder_2007
{% endhighlight %}



{% highlight text %}
## # A tibble: 142 x 5
##        country continent life_exp       pop gdp_per_cap
##          <chr>     <chr>    <dbl>     <int>       <dbl>
##  1 Afghanistan      Asia   43.828  31889923    974.5803
##  2     Albania    Europe   76.423   3600523   5937.0295
##  3     Algeria    Africa   72.301  33333216   6223.3675
##  4      Angola    Africa   42.731  12420476   4797.2313
##  5   Argentina  Americas   75.320  40301927  12779.3796
##  6   Australia   Oceania   81.235  20434176  34435.3674
##  7     Austria    Europe   79.829   8199783  36126.4927
##  8     Bahrain      Asia   75.635    708573  29796.0483
##  9  Bangladesh      Asia   64.062 150448339   1391.2538
## 10     Belgium    Europe   79.441  10392226  33692.6051
## # ... with 132 more rows
…
