…
In these notes, I will use the `msleep` dataset
in order to show various numerical summaries. Here is an example of
the dataset:


{% highlight r %}
msleep
{% endhighlight %}



{% highlight text %}
## # A tibble: 43 x 9
##    name     genus  vore  order sleep_total sleep_rem awake brainwt  bodywt
##    <chr>    <chr>  <chr> <chr>       <dbl>     <dbl> <dbl>   <dbl>   <dbl>
##  1 Owl mon… Aotus  omni  Prim…       17.0      1.80   7.00 1.55e⁻² 4.80e⁻¹
##  2 Greater… Blari… omni  Sori…       14.9      2.30   9.10 2.90e⁻⁴ 1.90e⁻²
##  3 Cow      Bos    herbi Arti…        4.00     0.700 20.0  4.23e⁻¹ 6.00e⁺²
##  4 Dog      Canis  carni Carn…       10.1      2.90  13.9  7.00e⁻² 1.40e⁺¹
##  5 Goat     Capri  herbi Arti…        5.30     0.600 18.7  1.15e⁻¹ 3.35e⁺¹
##  6 Guinea … Cavis  herbi Rode…        9.40     0.800 14.6  5.50e⁻³ 7.28e⁻¹
##  7 Chinchi… Chinc… herbi Rode…       12.5      1.50  11.5  6.40e⁻³ 4.20e⁻¹
##  8 Star-no… Condy… omni  Sori…       10.3      2.20  13.7  1.00e⁻³ 6.00e⁻²
##  9 African… Crice… omni  Rode…        8.30     2.00  15.7  6.60e⁻³ 1.00e⁺⁰
## 10 Lesser … Crypt… omni  Sori…        9.10     1.40  14.9  1.40e⁻⁴ 5.00e⁻³
## # ... with 33 more rows
…
